Utils/Decoders/ortree_tb.vcd
$date
	Wed Nov 27 21:51:51 2024
$end
$version
	ModelSim Version 2020.1
$end
$timescale
	1ps
$end

$scope module ortree_tb $end
$var parameter 32 ! N $end
$var reg 7 " ea [6:0] $end
$var wire 1 # orres $end
$var integer 32 $ i $end

$scope module uut $end
$var parameter 32 % N $end
$var wire 1 & ea [6] $end
$var wire 1 ' ea [5] $end
$var wire 1 ( ea [4] $end
$var wire 1 ) ea [3] $end
$var wire 1 * ea [2] $end
$var wire 1 + ea [1] $end
$var wire 1 , ea [0] $end
$var reg 1 - orres $end

$scope begin recursive_case $end
$var reg 1 . or1 $end
$var reg 1 / or2 $end

$scope module higher $end
$var parameter 0 0 N $end
$var wire 1 & ea [3] $end
$var wire 1 ' ea [2] $end
$var wire 1 ( ea [1] $end
$var wire 1 ) ea [0] $end
$var reg 1 1 orres $end

$scope begin recursive_case $end
$var reg 1 2 or1 $end
$var reg 1 3 or2 $end

$scope module higher $end
$var parameter 0 4 N $end
$var wire 1 & ea [1] $end
$var wire 1 ' ea [0] $end
$var reg 1 5 orres $end

$scope begin recursive_case $end
$var reg 1 6 or1 $end
$var reg 1 7 or2 $end

$scope module higher $end
$var parameter 0 8 N $end
$var wire 1 & ea [0] $end
$var reg 1 9 orres $end

$scope begin base_case $end
$upscope $end
$upscope $end

$scope module lower $end
$var parameter 0 : N $end
$var wire 1 ' ea [0] $end
$var reg 1 ; orres $end

$scope begin base_case $end
$upscope $end
$upscope $end
$upscope $end
$upscope $end

$scope module lower $end
$var parameter 0 < N $end
$var wire 1 ( ea [1] $end
$var wire 1 ) ea [0] $end
$var reg 1 = orres $end

$scope begin recursive_case $end
$var reg 1 > or1 $end
$var reg 1 ? or2 $end

$scope module higher $end
$var parameter 0 @ N $end
$var wire 1 ( ea [0] $end
$var reg 1 A orres $end

$scope begin base_case $end
$upscope $end
$upscope $end

$scope module lower $end
$var parameter 0 B N $end
$var wire 1 ) ea [0] $end
$var reg 1 C orres $end

$scope begin base_case $end
$upscope $end
$upscope $end
$upscope $end
$upscope $end
$upscope $end
$upscope $end

$scope module lower $end
$var parameter 0 D N $end
$var wire 1 * ea [2] $end
$var wire 1 + ea [1] $end
$var wire 1 , ea [0] $end
$var reg 1 E orres $end

$scope begin recursive_case $end
$var reg 1 F or1 $end
$var reg 1 G or2 $end

$scope module higher $end
$var parameter 0 H N $end
$var wire 1 * ea [1] $end
$var wire 1 + ea [0] $end
$var reg 1 I orres $end

$scope begin recursive_case $end
$var reg 1 J or1 $end
$var reg 1 K or2 $end

$scope module higher $end
$var parameter 0 L N $end
$var wire 1 * ea [0] $end
$var reg 1 M orres $end

$scope begin base_case $end
$upscope $end
$upscope $end

$scope module lower $end
$var parameter 0 N N $end
$var wire 1 + ea [0] $end
$var reg 1 O orres $end

$scope begin base_case $end
$upscope $end
$upscope $end
$upscope $end
$upscope $end

$scope module lower $end
$var parameter 0 P N $end
$var wire 1 , ea [0] $end
$var reg 1 Q orres $end

$scope begin base_case $end
$upscope $end
$upscope $end
$upscope $end
$upscope $end
$upscope $end
$upscope $end
$upscope $end
$enddefinitions $end
#0
$dumpvars
b0 "
0-
0.
0/
01
02
03
05
06
07
09
0;
0=
0>
0?
0A
0C
0E
0F
0G
0I
0J
0K
0M
0O
0Q
b111 !
b111 %
r4 0
r3 D
r2 4
r2 <
r2 H
r1 P
r1 8
r1 :
r1 @
r1 B
r1 L
r1 N
b0 $
0#
0,
0+
0*
0)
0(
0'
0&
$end
#10
b1 $
b1 "
1,
1Q
1G
1E
1/
1-
1#
#20
b10 $
b10 "
0,
1+
1O
0Q
0G
1K
1I
0E
0/
1F
1E
0-
1/
0#
1-
1#
#30
b11 $
b11 "
1,
1Q
1G
#40
b100 $
b100 "
0,
0+
1*
1M
0O
0Q
0G
0K
1J
#50
b101 $
b101 "
1,
1Q
1G
#60
b110 $
b110 "
0,
1+
1O
0Q
0G
1K
#70
b111 $
b111 "
1,
1Q
1G
#80
b1000 $
b1000 "
0,
0+
0*
1)
1C
0M
0O
0Q
0G
0K
0J
1?
1=
0I
0F
13
11
0E
0/
1.
#90
b1001 $
b1001 "
1,
1Q
1G
1E
1/
#100
b1010 $
b1010 "
0,
1+
1O
0Q
0G
1K
1I
0E
0/
1F
1E
1/
#110
b1011 $
b1011 "
1,
1Q
1G
#120
b1100 $
b1100 "
0,
0+
1*
1M
0O
0Q
0G
0K
1J
#130
b1101 $
b1101 "
1,
1Q
1G
#140
b1110 $
b1110 "
0,
1+
1O
0Q
0G
1K
#150
b1111 $
b1111 "
1,
1Q
1G
#160
b10000 $
b10000 "
0,
0+
0*
0)
1(
1A
0C
0M
0O
0Q
0G
0K
0J
0?
1>
0I
0F
0E
0/
#170
b10001 $
b10001 "
1,
1Q
1G
1E
1/
#180
b10010 $
b10010 "
0,
1+
1O
0Q
0G
1K
1I
0E
0/
1F
1E
1/
#190
b10011 $
b10011 "
1,
1Q
1G
#200
b10100 $
b10100 "
0,
0+
1*
1M
0O
0Q
0G
0K
1J
#210
b10101 $
b10101 "
1,
1Q
1G
#220
b10110 $
b10110 "
0,
1+
1O
0Q
0G
1K
#230
b10111 $
b10111 "
1,
1Q
1G
#240
b11000 $
b11000 "
0,
0+
0*
1)
1C
0M
0O
0Q
0G
0K
0J
1?
0I
0F
0E
0/
#250
b11001 $
b11001 "
1,
1Q
1G
1E
1/
#260
b11010 $
b11010 "
0,
1+
1O
0Q
0G
1K
1I
0E
0/
1F
1E
1/
#270
b11011 $
b11011 "
1,
1Q
1G
#280
b11100 $
b11100 "
0,
0+
1*
1M
0O
0Q
0G
0K
1J
#290
b11101 $
b11101 "
1,
1Q
1G
#300
b11110 $
b11110 "
0,
1+
1O
0Q
0G
1K
#310
b11111 $
b11111 "
1,
1Q
1G
#320
b100000 $
b100000 "
0,
0+
0*
0)
0(
1'
1;
0A
0C
0M
0O
0Q
0G
0K
0J
0?
0>
17
15
0=
0I
0F
03
12
0E
0/
#330
b100001 $
b100001 "
1,
1Q
1G
1E
1/
#340
b100010 $
b100010 "
0,
1+
1O
0Q
0G
1K
1I
0E
0/
1F
1E
1/
#350
b100011 $
b100011 "
1,
1Q
1G
#360
b100100 $
b100100 "
0,
0+
1*
1M
0O
0Q
0G
0K
1J
#370
b100101 $
b100101 "
1,
1Q
1G
#380
b100110 $
b100110 "
0,
1+
1O
0Q
0G
1K
#390
b100111 $
b100111 "
1,
1Q
1G
#400
b101000 $
b101000 "
0,
0+
0*
1)
1C
0M
0O
0Q
0G
0K
0J
1?
1=
0I
0F
13
0E
0/
#410
b101001 $
b101001 "
1,
1Q
1G
1E
1/
#420
b101010 $
b101010 "
0,
1+
1O
0Q
0G
1K
1I
0E
0/
1F
1E
1/
#430
b101011 $
b101011 "
1,
1Q
1G
#440
b101100 $
b101100 "
0,
0+
1*
1M
0O
0Q
0G
0K
1J
#450
b101101 $
b101101 "
1,
1Q
1G
#460
b101110 $
b101110 "
0,
1+
1O
0Q
0G
1K
#470
b101111 $
b101111 "
1,
1Q
1G
#480
b110000 $
b110000 "
0,
0+
0*
0)
1(
1A
0C
0M
0O
0Q
0G
0K
0J
0?
1>
0I
0F
0E
0/
#490
b110001 $
b110001 "
1,
1Q
1G
1E
1/
#500
b110010 $
b110010 "
0,
1+
1O
0Q
0G
1K
1I
0E
0/
1F
1E
1/
#510
b110011 $
b110011 "
1,
1Q
1G
#520
b110100 $
b110100 "
0,
0+
1*
1M
0O
0Q
0G
0K
1J
#530
b110101 $
b110101 "
1,
1Q
1G
#540
b110110 $
b110110 "
0,
1+
1O
0Q
0G
1K
#550
b110111 $
b110111 "
1,
1Q
1G
#560
b111000 $
b111000 "
0,
0+
0*
1)
1C
0M
0O
0Q
0G
0K
0J
1?
0I
0F
0E
0/
#570
b111001 $
b111001 "
1,
1Q
1G
1E
1/
#580
b111010 $
b111010 "
0,
1+
1O
0Q
0G
1K
1I
0E
0/
1F
1E
1/
#590
b111011 $
b111011 "
1,
1Q
1G
#600
b111100 $
b111100 "
0,
0+
1*
1M
0O
0Q
0G
0K
1J
#610
b111101 $
b111101 "
1,
1Q
1G
#620
b111110 $
b111110 "
0,
1+
1O
0Q
0G
1K
#630
b111111 $
b111111 "
1,
1Q
1G
#640
b1000000 $
b1000000 "
0,
0+
0*
0)
0(
0'
1&
19
0;
0A
0C
0M
0O
0Q
0G
0K
0J
0?
0>
07
16
0=
0I
0F
03
0E
0/
#650
b1000001 $
b1000001 "
1,
1Q
1G
1E
1/
#660
b1000010 $
b1000010 "
0,
1+
1O
0Q
0G
1K
1I
0E
0/
1F
1E
1/
#670
b1000011 $
b1000011 "
1,
1Q
1G
#680
b1000100 $
b1000100 "
0,
0+
1*
1M
0O
0Q
0G
0K
1J
#690
b1000101 $
b1000101 "
1,
1Q
1G
#700
b1000110 $
b1000110 "
0,
1+
1O
0Q
0G
1K
#710
b1000111 $
b1000111 "
1,
1Q
1G
#720
b1001000 $
b1001000 "
0,
0+
0*
1)
1C
0M
0O
0Q
0G
0K
0J
1?
1=
0I
0F
13
0E
0/
#730
b1001001 $
b1001001 "
1,
1Q
1G
1E
1/
#740
b1001010 $
b1001010 "
0,
1+
1O
0Q
0G
1K
1I
0E
0/
1F
1E
1/
#750
b1001011 $
b1001011 "
1,
1Q
1G
#760
b1001100 $
b1001100 "
0,
0+
1*
1M
0O
0Q
0G
0K
1J
#770
b1001101 $
b1001101 "
1,
1Q
1G
#780
b1001110 $
b1001110 "
0,
1+
1O
0Q
0G
1K
#790
b1001111 $
b1001111 "
1,
1Q
1G
#800
b1010000 $
b1010000 "
0,
0+
0*
0)
1(
1A
0C
0M
0O
0Q
0G
0K
0J
0?
1>
0I
0F
0E
0/
#810
b1010001 $
b1010001 "
1,
1Q
1G
1E
1/
#820
b1010010 $
b1010010 "
0,
1+
1O
0Q
0G
1K
1I
0E
0/
1F
1E
1/
#830
b1010011 $
b1010011 "
1,
1Q
1G
#840
b1010100 $
b1010100 "
0,
0+
1*
1M
0O
0Q
0G
0K
1J
#850
b1010101 $
b1010101 "
1,
1Q
1G
#860
b1010110 $
b1010110 "
0,
1+
1O
0Q
0G
1K
#870
b1010111 $
b1010111 "
1,
1Q
1G
#880
b1011000 $
b1011000 "
0,
0+
0*
1)
1C
0M
0O
0Q
0G
0K
0J
1?
0I
0F
0E
0/
#890
b1011001 $
b1011001 "
1,
1Q
1G
1E
1/
#900
b1011010 $
b1011010 "
0,
1+
1O
0Q
0G
1K
1I
0E
0/
1F
1E
1/
#910
b1011011 $
b1011011 "
1,
1Q
1G
#920
b1011100 $
b1011100 "
0,
0+
1*
1M
0O
0Q
0G
0K
1J
#930
b1011101 $
b1011101 "
1,
1Q
1G
#940
b1011110 $
b1011110 "
0,
1+
1O
0Q
0G
1K
#950
b1011111 $
b1011111 "
1,
1Q
1G
#960
b1100000 $
b1100000 "
0,
0+
0*
0)
0(
1'
1;
0A
0C
0M
0O
0Q
0G
0K
0J
0?
0>
17
0=
0I
0F
03
0E
0/
#970
b1100001 $
b1100001 "
1,
1Q
1G
1E
1/
#980
b1100010 $
b1100010 "
0,
1+
1O
0Q
0G
1K
1I
0E
0/
1F
1E
1/
#990
b1100011 $
b1100011 "
1,
1Q
1G
#1000
b1100100 $
b1100100 "
0,
0+
1*
1M
0O
0Q
0G
0K
1J
